
{
  "type": "service_account",
  "project_id": "web-bot-multilingual-dbqx",
  "private_key_id": "bd708b11ff8644ded105b86d25be2b44075cb59a",
  "private_key": "-----BEGIN PRIVATE KEY-----\nMIIEvQIBADANBgkqhkiG9w0BAQEFAASCBKcwggSjAgEAAoIBAQCuaSi4EVHzRSoL\nyWwXFtE//03DS6tRyXBlxsgZu/Un1p8S8eD4k6EHjwsN4s4OYQs9OOEHH1I2UXD/\nqDcdefzWoqE4GG4U0H8TQtwdywcHiNK8CMCXhozBst+xbzw7IzKmPZNKveM5f0ts\nmRWkuWSQtftVQ33+IOtQNRJcSuEY3Qp4lZ8dgZknXhS8f/xNoi0F207BwvmTMMwG\nRqiT0duSrdW7gJDHXywef0L17tLOaHh9vWvT3TZ2nTXHFXUwAKT285erzOTakktf\ndMOobjyhKDpQotODno4XHL0Qm4FiO22rgW8Pr1YE359WTE2EuV+dwdU53LGsq0cG\nszmsGc3HAgMBAAECggEAJo6//kVx+RaSz41FlKsqMnxGHEVHyCqA6zcxeKL5dUe4\n3i7UHhBBGtMwTe8Uv9ALdIr1EKaHfdOuaA6vtJgJ4geNHcIk3/wiA8eVsw517N/+\nOqyyqy0HRDE/y9G8HpTO9zqIrA7jw4vVSFplkwebaHSa7kQgAAUWEKLS/s1dCypB\nXkcjPcTYnm2y+W2N6bUCYfqAlCRvqk3naxaC2pWTz7jHS4Vbv9GN77J+Yee450Yq\nA0HMkkbw+TX3ytVj+KISx191lKdgGH5FXs5k9pl95Ab62+h8Mgtdo5LhJDpy7ZIg\np0kxdQ9bF034/OdPMnUo8Kl3Wn1jucJlxDix5sPVXQKBgQDVFjXz2TB2iXavulwY\nOyMegUEiyd+Np4DvBvPiVIpogQkXch3b7P30RYm5+2FDY66JCKu3L5cNBBTfFySQ\ne+jyyLZ/ynU0hRY4FFHgUUzQBidCc5uWxAGSIdrDWeajZ54E4TSyq2gLwbXhrhW+\nr0ahvvu8b6t+qpvMR7SZoiV30wKBgQDRiP1W838cx/f2DW4oRUvt6OK/NkBh7u2T\n6vF0HDvFobmuVb4RrMv2SBKyWBU8h+NbEGS6MoLDRcuUIqequL0gFXrbU3EsFRd4\nLKJ0blS8WJ94vpHAx+zs2hmP7ScK6U6TBWfoJR1L7ePzg9O2+TRPNhQ0BNBypBfz\njplzADbtvQKBgQCd40c218dBDboTm1KB4c+z2rIYxNwQafzvH4e2PE4SAQprhPL6\n8i95v8y9MbZv6Hx6rSIPKgQScOPGKa++HxIMUwxmw+z0bWh5RRUl0RfJS8XrRx4S\nKEnBrbQa65Ipoa1EkForyTXfADl0bzlNgTIkxw5gIZ5AzMmEI919uNdqYQKBgHJv\nLmzebv14+KMYkqDLt7wnBC8Jof/aTUYLefK/uKUmvhHIIhXlGT9X/V4JXQ/B5xlE\nyr4l9+RNqfEtPASxABkVohNGbvh0TG0Fc3PDDeQPQojfCxsOFQcF1hAUpM4AvTju\nKuFN48IkGepUhLvZPghEsKP4PR9fHvWVW5jC9TzBAoGAZhfLRYmjUBhgc7qyqfXb\nfFvsWsU+xqsmBlBUuS0LN/SbHPNrKWMCMnsTwD4YQGCPBj9LY9MSUdEqktDJ5Frc\nDe+W5VYUO55BaCi5H+6Eh6GuLeJISpWqpLnExtl5HZGMxkb6G5Ts+lpozKluARiZ\nOFM5Ny0QPs5MyzTS7nYAl48=\n-----END PRIVATE KEY-----\n",
  "client_email": "web-bot-multilingual@web-bot-multilingual-dbqx.iam.gserviceaccount.com",
  "client_id": "118160206662080529224",
  "auth_uri": "https://accounts.google.com/o/oauth2/auth",
  "token_uri": "https://oauth2.googleapis.com/token",
  "auth_provider_x509_cert_url": "https://www.googleapis.com/oauth2/v1/certs",
  "client_x509_cert_url": "https://www.googleapis.com/robot/v1/metadata/x509/web-bot-multilingual%40web-bot-multilingual-dbqx.iam.gserviceaccount.com"
}
